test1 http://localhost:8080/195513b3
test2 http://localhost:8080/cc0300ef
test3 http://localhost:8080/68dc22d2
test4 http://localhost:8080/7ec2f826
test5 http://localhost:8080/35c08ff4
test6 http://localhost:8080/7920776d
test7 http://localhost:8080/48c19ee1
test8 http://localhost:8080/902e2655
test9 http://localhost:8080/c31e30bb
test10 None://None:None/0af9f503
test11 None://None:None/b654fc54
test12 None://None:None/baa960d8
test13 None://None:None/b1e204ed
test14 None://None:None/993b57ed
test15 None://None:None/6ab7c531
test16 None://None:None/25bb6389
