test1 http://localhost:8080/195513b3
test2 http://localhost:8080/cc0300ef
test3 http://localhost:8080/68dc22d2
test4 http://localhost:8080/7ec2f826
test5 http://localhost:8080/35c08ff4
test6 http://localhost:8080/7920776d
test7 http://localhost:8080/48c19ee1
test8 http://localhost:8080/902e2655
test9 http://localhost:8080/c31e30bb
